Trabajo 2: Web Scraping e IA
…
# Opcional: Si deseas ver los conjuntos calculados
print(solo_positivas)

# A tibble: 9,274 × 2
   word              n
   <chr>         <int>
 1 procesamiento    33
 2 expositores      28
 3 ii               22
 4 jornadas         22
 5 sentar           22
 6 charlas          21
 7 fórum            21
 8 medicina         21
 9 única            21
10 2do              19
# ℹ 9,264 more rows

print(solo_negativas)

# A tibble: 3,470 × 2
   word                n
   <chr>           <int>
 1 compañeras         13
 2 saint              13
 3 desnudas           12
 4 engaño             11
 5 huelga              8
 6 corte               7
 7 falsa               7
 8 falsificaciones     7
 9 inquietante         7
10 phishing            7
# ℹ 3,460 more rows

print(palabras_compartidas)

# A tibble: 4,957 × 2
   word             n
   <chr>        <int>
 1 datos          362
 2 desarrollo     287
 3 ai             238
 4 mundo          239
 5 uso            277
 6 futuro         201
 7 herramientas   201
 8 tecnologías    196
 9 empresas       204
10 sistema        204
# ℹ 4,947 more rows
…
